%YAML 1.1
%TAG !u! tag:unity3d.com,2011:
--- !u!114 &11400000
MonoBehaviour:
  m_ObjectHideFlags: 0
  m_CorrespondingSourceObject: {fileID: 0}
  m_PrefabInternal: {fileID: 0}
  m_GameObject: {fileID: 0}
  m_Enabled: 1
  m_EditorHideFlags: 0
  m_Script: {fileID: 11500000, guid: e62fdad4ea10c58448b4eec19957afad, type: 3}
  m_Name: Green Lazer
  m_EditorClassIdentifier: 
  m_aNull: Green Lazer
  m_aSprite: {fileID: 21300000, guid: ad762b9452d00fe458c5df2cf220ca5b, type: 3}
  m_aSound: {fileID: 8300000, guid: 6395770358c04bf4b9dcaa3d3ba826b3, type: 3}
  m_aBaseCoolDown: 2
  m_gunDamage: 3
  m_weaponRange: 100
  m_hitForce: 200
  m_laserColor: {r: 0, g: 1, b: 0.0075297356, a: 1}
